"id (S)","device (S)","humidity (S)","pressure (S)","temp (S)","timestamp (S)","voltage (S)"
"96d96660-5327-11e8-80c1-43a5b05f4333","dev-PPPP","35","389","2000","Wed May 09 2018 01:23:33 GMT+0000 (UTC)","110"
"51fe5c50-526c-11e8-9797-833189e6b227","dev-123","35","389","800","Tue May 08 2018 03:03:02 GMT+0000 (UTC)","110"
"a82eb8e0-526c-11e8-9797-833189e6b227","dev-123","35","389","800","Tue May 08 2018 03:05:26 GMT+0000 (UTC)","110"
"822d90d0-526c-11e8-9797-833189e6b227","dev-123","35","389","800","Tue May 08 2018 03:04:22 GMT+0000 (UTC)","110"
"c5c82110-5326-11e8-bbdc-47dfd1bc0858","dev-123","35","389","800","Wed May 09 2018 01:17:42 GMT+0000 (UTC)","110"
"fb6cfe90-526c-11e8-9797-833189e6b227","dev-123","35","389","800","Tue May 08 2018 03:07:46 GMT+0000 (UTC)","110"
"ab823fb0-5327-11e8-80c1-43a5b05f4333","dev-123","35","389","800","Wed May 09 2018 01:24:08 GMT+0000 (UTC)","110"
"cbe60700-5327-11e8-80c1-43a5b05f4333","dev-123","35","389","800","Wed May 09 2018 01:25:02 GMT+0000 (UTC)","110"
"8303bb90-5327-11e8-80c1-43a5b05f4333","dev-PPPP","35","389","2000","Wed May 09 2018 01:23:00 GMT+0000 (UTC)","110"
"84717c60-5327-11e8-80c1-43a5b05f4333","dev-PPPP","35","389","2000","Wed May 09 2018 01:23:02 GMT+0000 (UTC)","110"
"647c2e50-5327-11e8-8565-dd582bf3cc3f","dev-PPPP","35","389","2000","Wed May 09 2018 01:22:08 GMT+0000 (UTC)","110"
